11111111111111111111111111111111111111111111111111111111111111111111111111111111
11111111111111111111111111111111111111111111111111111111111111111111111111111111
11111111111111111133333311111111111111111111111111111111111111111111111111111111
11111111111111113311111133311111111111111111111111111111111111111111111111111111
11111111111111131111111111131111111111111111111111111111111111111111111111111111
11111111111111311111111111131111111111111111111111111111111111111111111111111111
11111111111111133331111333311111111111111111111111111111111111111111111111111111
11111111111111111131133311111111111111111111111111111111111111111111111111111111
11111111111111111131111311111111111111111111111111111111111111111111111111111111
11111111111111111311111131111111111111111111111111111111111111111111111111111111
11111111111111111311111131111111111111111111111111111111111111111111111111111111
11111111116666111133333311111111111111111111111111122222221111111111111111111111
11111111661111661111111111111111111111111111111111221111222221111111111111111111
11661111611111116611111111111111111111111111111122111111122222211111111111111111
16116666111111111166611116666661111111111111112221111111111112221111111111111111
11111111111111111111161661111116611111111111122211111111111111222111111111111111
11111111111111111111116111111111161177711111222111111111222222222222111111111111
11111111111111111111111111111111116111111122221111117777222222222222212211111111
16661111111111111111111111111111116177711221111111112222222222222222222222111111
16661111177711111111111111111111116111112111111111112222222222222111222222211111
16661111166611111777111111111111116111112111111111111222222221111111111222222211
16661111166611111666111111166666666117112111111111111112222211111111111221111121
16667777766677777666777777766666666177712111111111111112222211111111111221111111
11111111111111111111111111111111111111111111111111111111111111111111111111111111
