11111111111111111111111111111111111111111111111111111111111111111111111111111111
11111111111111111111111111111111111111111111111111111111111111111111111111111111
11111111111111111111111111111111111111111111111111111111111111111111111111111111
11111111111111111122222222222222222222222222222222222222222222222222111111111111
11111111111111111222222222222222222222222222222222222222222222222222111111111111
11111111111111112222222222222222222222222222222222222222222222222222211111111111
11111111111111112222222222222222222222222222222222222222222222222222211111111111
11111111111111111122222222222222222222222222222222222222222222222221111111111111
11111111111111111111111111111111111111111111111111111111111111111111111111111111
11111117777777777777111111177777777777777777777777777777777777777777777111111111
11111117777777777771111111117777777777777777777777777777777777777777777711111111
11111117777777777771111111117777777777777777777777777777777777777777777711111111
11111117777777777771111111117777777777777777777777777777777777777777777111111111
11111117777777777771111111177777777777777777777777777777777777777777777711111111
11111117777777777777117777777777777777777777777777777777777777777777777711111111
11111111111111111111111111111111111111111111111111111111111111111111111111111111
11111111111111111111111111111111111111111111111111111111111111111111111111111111
11111111111111111111111111111111111111111111111111111111111111111111111111111111
11111111155555511111111111111111111111111111111117777777777777777777777777111111
11111115555511111111111166666666666666111111111111111111111111111111111111111111
11111111155555555111111111111666611111111111111111777777777777777777777771111111
11111111111111111111111111111111111111111111111111111111111111111111111111111111
11111111111111111111111111111111111111111111111111111111111111111111111111111111
11111111111111111111111111111111111111111111111111111111111111111111111111111111
