11111111111111111111111111111111111111111111111111111111111111111111111111111111
16666666666666666666666666666666666666666666666666666666666666666666666666666661
16666666611766666666666666666666666666666666666666666666666666666666666666666661
16666666666666666666666667776666666666666666666666666666666666666666666666666661
16666666666666666666666667776666666666666666666666666666666666666666666666666661
16666666666666666666666666666666666666666666666666666666666666666666666666666661
16666666666666666666666666666666666666666666666666666666666666666666666666666661
16666666666666666666666666666666666666666666666666666666666666666666666666666771
16666666666666666666666666666666666666666666666666666666666666666666666666666771
16666666666666666666666666666666666666666666666666666666666666666666666666666771
16666666666666666666666666666666666666666666666666666666666666666666666666666771
16666666666666666666666666666666666776666666666666666666666666666666666666666771
16666666666666666666666666666666666666666666666666666666666666666666666666666771
16666666666666666666666666666666666666666666666666666666666666666666666666666771
16666666666666666666666666666666666666666666666666666666666666666666666666666661
16666666666666666666666666666666666666666666666666666666666666666666666661666661
16666666666666666666666666666666666666666666666666666666666666666666666666666661
16666666666666666666666666666666666666666666666666666666666666666666666666666661
16666666666666666666666666666666666666666666666666666666666666666777777766666661
16666666666666666666666666666666666666666666666666666666666666667777777776666661
16666666666666666666666666666666666666666666666666664466666666677777777777666661
16666666666666666666666666666666666666666666666666666666666666677777777777666661
16666666666666677777666666666666666666666666666666667766666666664446664446666661
11111111111111111111111111111111111111111111111111111111111111111111111111111111
