11111111111111111111111111111111111111111111111111111111111111111111111111111111
12222222222222222222222222222222222222222222222222222222222272222222222222222221
12222222222222222222227222222222222222222227222222222222222777222222222222222221
12227777722222222222277722222222222222222277722222222222222272222222222222722221
12777777777222222222227222222222222222222227222222222222222222222222222227772221
17777777777722222222222222222222211222222222222221122222222222222222222222722221
17777777777722222222211222222221111111122222211111111122222221122222222222222221
12777727777222222211111111111111111111111222111111111111111111111112222222222221
12222222222222222111111111111111111111111121111111111111111111111111111111222221
12222222222221111111111111111111111111111111111111111111111111111111111111112221
12222222211111111111111111111111111111111111111111111111111111111111111111111121
12222211111111111111111111111111111111111111111111111111111111111111111111111111
12111111111111111111111111111111111111111111111111111111111111111111111111111171
11111111111111111111111111111111111111111111111111111111111111111111111111111111
11111111111111111111111111111111111111122221111111111111111111111111111111112221
11111111111111111111111111111111111111122221111111111111111111111111111111111221
11111111111111111111111111111111111111122221111111111111111111111111111111111121
11111111111111111111111111111111111111122221111111111111111111111111111111111111
11111111111111111111111111111111111111122221111111111111111111111111111111111111
12211111111111111111111111111111111111122221111111111111111111111111111111111111
12111111111111111111111111111111111111122221111111111111111111111111111111111111
11111111111111111111111111111111111111122221111111111111111111111111111111111111
17777777777777777777777777777777777777777777777777777777777777777777777777777771
11111111111111111111111111111111111111111111111111111111111111111111111111111111
